{
	"segments": {
		"right": [
			{
				"function": "powerline.segments.common.players.mpd",
				"name": "player",
				"args": {
					"format": "{state_symbol} {album} - {title}"
				}
			},
			{
				"function": "powerline.segments.common.bat.battery"
			},
			{
				"function": "powerline.segments.common.wthr.weather",
				"priority": 50
			},
			{
				"function": "powerline.segments.common.time.date",
				"args": {
					"format": "%d/%m/%Y"
				}
			},
			{
				"function": "powerline.segments.common.time.date",
				"name": "time",
				"args": {
					"format": "%H:%M",
					"istime": true
				}
			},
			{
				"function": "powerline.segments.common.mail.email_imap_alert",
				"priority": 10,
				"args": {
					"username": "",
					"password": ""
				}
			}
		]
	}
}
